1 41602U 16040D   16304.86094861 +.00002639 +00000-0 +12386-3 0  9993
2 41602 097.4905 003.2744 0010407 152.6651 207.5134 15.20493932019850
1 41602U 16040D   16305.91390992 +.00002218 +00000-0 +10458-3 0  9995
2 41602 097.4901 004.3205 0010499 149.3041 210.8810 15.20497778020017
1 41602U 16040D   16306.17714967  .00002165  00000-0  10217-3 0  9990
2 41602  97.4899   4.5820 0010517 148.4885 211.6982 15.20498962 20054
1 41602U 16040D   16306.90105808 +.00002001 +00000-0 +94673-4 0  9997
2 41602 097.4897 005.3011 0010567 146.2495 213.9415 15.20501850020160
1 41602U 16040D   16307.49334599  .00001711  00000-0  81404-4 0  9998
2 41602  97.4895   5.8895 0010611 144.4395 215.7549 15.20503540 20258
1 41602U 16040D   16307.88820371 +.00001929 +00000-0 +91340-4 0  9990
2 41602 097.4894 006.2817 0010631 143.1831 217.0136 15.20506013020311
1 41602U 16040D   16308.80953729  .00001921  00000-0  90968-4 0  9994
2 41602  97.4892   7.1969 0010708 140.2101 219.9921 15.20509875 20457
1 41602U 16040D   16308.94115612 +.00001940 +00000-0 +91847-4 0  9998
2 41602 097.4892 007.3276 0010722 139.8035 220.3995 15.20510479020477
1 41602U 16040D   16309.86248716 +.00001982 +00000-0 +93768-4 0  9992
2 41602 097.4891 008.2427 0010796 136.8889 223.3193 15.20514208020612
1 41602U 16040D   16310.12572415  .00001973  00000-0  93315-4 0  9997
2 41602  97.4890   8.5042 0010815 136.0701 224.1396 15.20515271 20653
1 41602U 16040D   16310.91543417 +.00001706 +00000-0 +81124-4 0  9993
2 41602 097.4892 009.2886 0010812 133.6611 226.5522 15.20517047020772
1 41602U 16040D   16311.17867045  .00001701  00000-0  80887-4 0  9998
2 41602  97.4892   9.5501 0010823 132.8549 227.3597 15.20518081 20817
1 41602U 16040D   16311.90257018 +.00001447 +00000-0 +69300-4 0  9996
2 41602 097.4891 010.2692 0010877 130.6143 229.6040 15.20519403020920
1 41602U 16040D   16312.49485078  .00001633  00000-0  77771-4 0  9998
2 41602  97.4891  10.8575 0010915 128.7654 231.4559 15.20522415 21018
1 41602U 16040D   16312.88970422 +.00001361 +00000-0 +65363-4 0  9995
2 41602 097.4890 011.2497 0010942 127.5555 232.6676 15.20522324021070
1 41602U 16040D   16313.87683593  .00001594  00000-0  75971-4 0  9999
2 41602  97.4889  12.2302 0010994 124.5111 235.7164 15.20526886 21226
1 41602U 16040D   16313.94264490 +.00001368 +00000-0 +65671-4 0  9993
2 41602 097.4889 012.2956 0010995 124.3251 235.9026 15.20525812021233
1 41602U 16040D   16314.92977465 +.00001358 +00000-0 +65197-4 0  9997
2 41602 097.4888 013.2761 0011036 121.3619 238.8698 15.20528922021387
1 41602U 16040D   16315.19300901  .00001335  00000-0  64150-4 0  9995
2 41602  97.4888  13.5376 0011047 120.5785 239.6541 15.20529602 21426
1 41602U 16040D   16315.91690124 +.00001793 +00000-0 +85060-4 0  9995
2 41602 097.4887 014.2566 0011084 118.3437 241.8917 15.20534742021539
1 41602U 16040D   16316.44336726  .00002372  00000-0  11147-3 0  9997
2 41602  97.4887  14.7795 0011107 116.6885 243.5489 15.20539901 21616
1 41602U 16040D   16316.90402571 +.00001783 +00000-0 +84600-4 0  9990
2 41602 097.4886 015.2371 0011130 115.3299 244.9090 15.20538173021682
1 41602U 16040D   16317.49629997  .00002351  00000-0  11051-3 0  9999
2 41602  97.4889  15.8255 0011171 113.6892 246.5516 15.20541611 21779
1 41602U 16040D   16317.89114787 +.00002456 +00000-0 +11528-3 0  9994
2 41602 097.4888 016.2177 0011181 112.4571 247.7849 15.20543856021830
1 41602U 16040D   16318.54922685  .00002832  00000-0  13244-3 0  9996
2 41602  97.4886  16.8714 0011205 110.4966 249.7473 15.20548340 21933
1 41602U 16040D   16318.94407332 +.00002201 +00000-0 +10364-3 0  9997
2 41602 097.4885 017.2636 0011226 109.2798 250.9652 15.20548540021993
1 41602U 16040D   16319.79957283  .00002125  00000-0  10015-3 0  9994
2 41602  97.4882  18.1133 0011265 106.7056 253.5416 15.20552458 22120
1 41602U 16040D   16319.93118809 +.00002001 +00000-0 +94477-4 0  9991
2 41602 097.4882 018.2440 0011271 106.3167 253.9308 15.20552571022140
1 41602U 16040D   16320.91830023 +.00001765 +00000-0 +83727-4 0  9992
2 41602 097.4878 019.2244 0011293 103.3753 256.8742 15.20555973022299
1 41602U 16040D   16321.18153000  .00001753  00000-0  83155-4 0  9997
2 41602  97.4878  19.4856 0011235 102.4700 257.7793 15.20555993 22331
1 41602U 16040D   16321.90541063 +.00001532 +00000-0 +73078-4 0  9995
2 41602 097.4877 020.2045 0011258 100.2963 259.9542 15.20557884022441
1 41602U 16040D   16322.36606114  .00001616  00000-0  76930-4 0  9998
2 41602  97.4877  20.6620 0011269  98.9273 261.3238 15.20560182 22515
1 41602U 16040D   16322.89251854 +.00001383 +00000-0 +66302-4 0  9996
2 41602 097.4875 021.1849 0011277 097.3576 262.8942 15.20560875022595
1 41602U 16040D   16323.55058936  .00001569  00000-0  74751-4 0  9999
2 41602  97.4875  21.8385 0011277  95.3486 264.9037 15.20564292 22691
1 41602U 16040D   16323.94543141 +.00001334 +00000-0 +64053-4 0  9993
2 41602 097.4874 022.2306 0011275 094.1824 266.0700 15.20564402022759
1 41602U 16040D   16324.93253558 +.00001268 +00000-0 +61027-4 0  9997
2 41602 097.4872 023.2110 0011265 091.2580 268.9946 15.20567232022901
1 41602U 16040D   16325.85383101  .00001492  00000-0  71217-4 0  9998
2 41602  97.4871  24.1260 0011260  88.4792 271.7733 15.20571290 23045
1 41602U 16040D   16325.91963767 +.00001441 +00000-0 +68890-4 0  9994
2 41602 097.4871 024.1913 0011259 088.3004 271.9520 15.20571250023056
1 41602U 16040D   16326.90673857 +.00001203 +00000-0 +58038-4 0  9991
2 41602 097.4871 025.1716 0011261 085.4060 274.8461 15.20572711023207
1 41602U 16040D   16327.10415850  .00001193  00000-0  57594-4 0  9995
2 41602  97.4870  25.3677 0011258  84.8165 275.4355 15.20573218 23234
1 41602U 16040D   16327.89383727 +.00001389 +00000-0 +66544-4 0  9990
2 41602 097.4870 026.1519 0011257 082.4400 277.8114 15.20576382023350
1 41602U 16040D   16328.15706323  .00001400  00000-0  67027-4 0  9992
2 41602  97.4869  26.4133 0011248  81.6177 278.6333 15.20577180 23398
1 41602U 16040D   16328.88093405 +.00001346 +00000-0 +64554-4 0  9993
2 41602 097.4869 027.1322 0011234 079.4653 280.7848 15.20578899023501
1 41602U 16040D   16329.47319061  .00001668  00000-0  79230-4 0  9992
2 41602  97.4868  27.7204 0011213  77.6460 282.6030 15.20582429 23595
1 41602U 16040D   16329.80222171 +.00001714 +00000-0 +81347-4 0  9998
2 41602 097.4868 028.0471 0011204 076.6453 283.6030 15.20583722023640
1 41602U 16040D   16330.85511957  .00002291  00000-0  10760-3 0  9999
2 41602  97.4871  29.0929 0011206  73.6899 286.5568 15.20588795 23807
1 41602U 16040D   16330.92092581 +.00002194 +00000-0 +10322-3 0  9990
2 41602 097.4871 029.1582 0011204 073.5020 286.7446 15.20588589023815
1 41602U 16040D   16331.84220816 +.00002021 +00000-0 +95315-4 0  9991
2 41602 097.4869 030.0732 0011165 070.7204 289.5238 15.20591922023959
1 41602U 16040D   16332.17123687  .00001858  00000-0  87897-4 0  9999
2 41602  97.4868  30.4000 0011144  69.7264 290.5168 15.20593024 24007
1 41602U 16040D   16332.89509921 +.00001580 +00000-0 +75220-4 0  9996
2 41602 097.4866 031.1189 0011107 067.5232 292.7178 15.20595390024116
1 41602U 16040D   16333.22412714  .00001499  00000-0  71494-4 0  9995
2 41602  97.4865  31.4456 0011086  66.4798 293.7601 15.20596607 24165
1 41602U 16040D   16333.94798802 +.00001604 +00000-0 +76299-4 0  9995
2 41602 097.4861 032.1642 0011059 064.0994 296.1380 15.20598671024274
1 41602U 16040D   16334.47443154  .00001582  00000-0  75283-4 0  9998
2 41602  97.4860  32.6870 0011031  62.5062 297.7293 15.20600473 24353
1 41602U 16040D   16334.93506909 +.00001399 +00000-0 +66939-4 0  9991
2 41602 097.4859 033.1444 0011003 061.0724 299.1614 15.20601272024421
1 41602U 16040D   16335.85634246  .00001476  00000-0  70446-4 0  9993
2 41602  97.4857  34.0592 0010953  58.2421 301.9880 15.20605163 24563
1 41602U 16040D   16336.90922451 +.00001285 +00000-0 +61758-4 0  9992
2 41602 097.4855 035.1047 0010898 055.0428 305.1829 15.20607762024722
1 41602U 16040D   16337.17244472  .00001269  00000-0  60992-4 0  9993
2 41602  97.4854  35.3661 0010880  54.2308 305.9937 15.20608500 24767
1 41602U 16040D   16337.89629927 +.00001341 +00000-0 +64285-4 0  9994
2 41602 097.4853 036.0849 0010841 052.0058 308.2154 15.20611230024870
1 41602U 16040D   16338.48854343  .00001372  00000-0  65715-4 0  9995
2 41602  97.4853  36.6729 0010802  50.1591 310.0593 15.20613197 24963
1 41602U 16040D   16338.62015310 +.00001366 +00000-0 +65438-4 0  9999
2 41602 097.4853 036.8036 0010791 049.7557 310.4620 15.20613581024983
1 41602U 16040D   16339.80463898  .00001361  00000-0  65172-4 0  9998
2 41602  97.4851  37.9798 0010707  46.0383 314.1733 15.20617025 25166
1 41602U 16040D   16339.93624852 +.00001190 +00000-0 +57388-4 0  9991
2 41602 097.4851 038.1104 0010694 045.6379 314.5730 15.20616432025189
1 41602U 16040D   16340.85751330  .00001271  00000-0  61067-4 0  9995
2 41602  97.4850  39.0252 0010624  42.7273 317.4787 15.20619551 25321
1 41602U 16040D   16340.92331787 +.00001172 +00000-0 +56581-4 0  9998
2 41602 097.4850 039.0905 0010616 042.5356 317.6700 15.20619219025336
1 41602U 16040D   16341.91038523 +.00001291 +00000-0 +61982-4 0  9993
2 41602 097.4849 040.0706 0010547 039.4481 320.7520 15.20622743025489
1 41602U 16040D   16342.17360293  .00001287  00000-0  61809-4 0  9997
2 41602  97.4848  40.3320 0010527  38.6010 321.5976 15.20623458 25523
1 41602U 16040D   16342.89745096 +.00001335 +00000-0 +64003-4 0  9997
2 41602 097.4848 041.0507 0010474 036.3314 323.8630 15.20625708025635
1 41602U 16040D   16343.35808052  .00001659  00000-0  78749-4 0  9992
2 41602  97.4847  41.5080 0010443  34.8443 325.3474 15.20628857 25706
1 41602U 16040D   16343.81870985 +.00001602 +00000-0 +76124-4 0  9990
2 41602 097.4846 041.9653 0010403 033.3984 326.7906 15.20629971025775
1 41602U 16040D   16344.47675080  .00001627  00000-0  77272-4 0  9994
2 41602  97.4846  42.6187 0010345  31.2696 328.9152 15.20632173 25873
1 41602U 16040D   16344.93737910 +.00001566 +00000-0 +74519-4 0  9999
2 41602 097.4845 043.0760 0010298 029.7764 330.4055 15.20633238025940
1 41602U 16040D   16345.79282977  .00001612  00000-0  76591-4 0  9996
2 41602  97.4844  43.9254 0010219  26.9826 333.1939 15.20636386 26070
1 41602U 16040D   16345.92443768 +.00001505 +00000-0 +71720-4 0  9998
2 41602 097.4843 044.0561 0010204 026.5479 333.6277 15.20636178026097
1 41602U 16040D   16346.84569043  .00001388  00000-0  66409-4 0  9992
2 41602  97.4842  44.9708 0010123  23.5574 336.6123 15.20638610 26233
1 41602U 16040D   16346.91149419 +.00001388 +00000-0 +66397-4 0  9997
2 41602 097.4842 045.0361 0010117 023.3462 336.8230 15.20638823026245
1 41602U 16040D   16347.89854915 +.00001140 +00000-0 +55074-4 0  9995
2 41602 097.4840 046.0161 0010014 020.1804 339.9825 15.20640667026392
1 41602U 16040D   16348.16176353  .00001106  00000-0  53542-4 0  9999
2 41602  97.4840  46.2774 0009995  19.2640 340.8972 15.20641320 26433
1 41602U 16040D   16348.88560236 +.00001074 +00000-0 +52065-4 0  9998
2 41602 097.4839 046.9961 0009928 016.8484 343.3079 15.20643282026548
1 41602U 16040D   16349.21461975  .00001036  00000-0  50367-4 0  9997
2 41602  97.4838  47.3227 0009897  15.7094 344.4446 15.20644046 26591
1 41602U 16040D   16349.87265398 +.00000965 +00000-0 +47120-4 0  9993
2 41602 097.4837 047.9761 0009829 013.4948 346.6548 15.20645540026695
1 41602U 16040D   16350.39908102  .00000956  00000-0  46706-4 0  9998
2 41602  97.4836  48.4987 0009779  11.6810 348.4650 15.20646818 26774
1 41602U 16040D   16350.92550774 +.00000870 +00000-0 +42814-4 0  9996
2 41602 097.4835 049.0213 0009726 009.8577 350.2848 15.20647679026858
1 41602U 16040D   16351.51773745  .00000813  00000-0  40206-4 0  9997
2 41602  97.4834  49.6092 0009664   7.8556 352.2828 15.20648767 26943
1 41602U 16040D   16351.91255723 +.00000742 +00000-0 +36946-4 0  9999
2 41602 097.4833 050.0012 0009625 006.5081 353.6277 15.20649191027009
1 41602U 16040D   16352.83380246  .00000750  00000-0  37315-4 0  9990
2 41602  97.4832  50.9158 0009537   3.3304 356.7993 15.20651028 27149
1 41602U 16040D   16352.89960571 +.00000765 +00000-0 +37991-4 0  9997
2 41602 097.4832 050.9811 0009531 003.1044 357.0249 15.20651207027156
1 41602U 16040D   16353.88665284 +.00000801 +00000-0 +39637-4 0  9990
2 41602 097.4831 051.9610 0009434 359.6374 000.4852 15.20653218027300
1 41602U 16040D   16354.21566836  .00000790  00000-0  39137-4 0  9993
2 41602  97.4830  52.2876 0009399 358.4667   1.6538 15.20653760 27350
1 41602U 16040D   16354.87369882 +.00000836 +00000-0 +41238-4 0  9993
2 41602 097.4829 052.9409 0009333 356.1189 003.9972 15.20655203027451
1 41602U 16040D   16355.46592584  .00001095  00000-0  53013-4 0  9998
2 41602  97.4829  53.5288 0009279 353.9904   6.1218 15.20657672 27542
1 41602U 16040D   16355.92654632 +.00000890 +00000-0 +43715-4 0  9992
2 41602 097.4828 053.9861 0009229 352.3167 007.7925 15.20657541027616
1 41602U 16040D   16356.84778628  .00001207  00000-0  58117-4 0  9991
2 41602  97.4828  54.9006 0009146 349.0284  11.0751 15.20661198 27752
1 41602U 16040D   16356.91358845 +.00001416 +00000-0 +67632-4 0  9998
2 41602 097.4827 054.9659 0009140 348.8018 011.3012 15.20662665027765
1 41602U 16040D   16357.83482671 +.00001295 +00000-0 +62117-4 0  9993
2 41602 097.4827 055.8804 0009047 345.4637 014.6336 15.20664198027907
1 41602U 16040D   16358.49285294  .00001278  00000-0  61341-4 0  9997
2 41602  97.4826  56.5337 0008982 343.0334  17.0600 15.20665813 28008
1 41602U 16040D   16358.88766820 +.00001349 +00000-0 +64581-4 0  9997
2 41602 097.4825 056.9256 0008945 341.5896 018.5014 15.20667247028060
1 41602U 16040D   16359.80890264  .00001261  00000-0  60565-4 0  9991
2 41602  97.4824  57.8401 0008867 338.1426  21.9430 15.20669412 28207
1 41602U 16040D   16359.94050747 +.00001261 +00000-0 +60583-4 0  9990
2 41602 097.4824 057.9707 0008855 337.6395 022.4453 15.20669774028227
1 41602U 16040D   16360.86173936 +.00001437 +00000-0 +68561-4 0  9998
2 41602 097.4823 058.8852 0008775 334.1168 025.9627 15.20673589028363
1 41602U 16040D   16361.12494819  .00001402  00000-0  66986-4 0  9995
2 41602  97.4822  59.1465 0008756 333.0946  26.9834 15.20674295 28408
1 41602U 16040D   16361.91457410 +.00001337 +00000-0 +64003-4 0  9993
2 41602 097.4821 059.9303 0008689 330.1195 029.9543 15.20676455028528
1 41602U 16040D   16362.17778239  .00001312  00000-0  62857-4 0  9995
2 41602  97.4820  60.1916 0008666 329.1030  30.9694 15.20677183 28564
1 41602U 16040D   16362.90160506 +.00001101 +00000-0 +53295-4 0  9990
2 41602 097.4819 060.9101 0008597 326.3569 033.7119 15.20678259028675
1 41602U 16040D   16363.49382266  .00001122  00000-0  54219-4 0  9994
2 41602  97.4818  61.4980 0008551 324.0571  36.0088 15.20680183 28763
1 41602U 16040D   16363.88863421 +.00001081 +00000-0 +52364-4 0  9997
2 41602 097.4817 061.8899 0008518 322.5162 037.5478 15.20681034028829
1 41602U 16040D   16364.54665299  .00001089  00000-0  52719-4 0  9996
2 41602  97.4816  62.5430 0008473 319.9439  40.1170 15.20682864 28926
1 41602U 16040D   16364.94146374 +.00000973 +00000-0 +47462-4 0  9998
2 41602 097.4814 062.9349 0008450 318.3725 041.6866 15.20683343028980
1 41602U 16040D   16365.79688650  .00001125  00000-0  54350-4 0  9994
2 41602  97.4813  63.7840 0008390 314.9557  45.0997 15.20686343 29114
1 41602U 16040D   16365.92849001 +.00000903 +00000-0 +44247-4 0  9995
2 41602 097.4812 063.9146 0008380 314.4007 045.6542 15.20685467029138
1 41602U 16040D   16366.91551449 +.00001071 +00000-0 +51889-4 0  9998
2 41602 097.4811 064.8943 0008312 310.4570 049.5940 15.20688953029282
1 41602U 16040D   17001.17870918  .00001071  00000-0  51887-4 0  9996
2 41602  97.4811  65.1555 0008297 309.3873  50.6626 15.20689634 29326
1 41602U 16040D   17001.90252599 +.00001036 +00000-0 +50285-4 0  9998
2 41602 097.4810 065.8739 0008250 306.4819 053.5655 15.20691252029438
1 41602U 16040D   17002.49473934  .00001105  00000-0  53434-4 0  9997
2 41602  97.4809  66.4617 0008217 304.0883  55.9571 15.20692999 29528
1 41602U 16040D   17002.88954783 +.00001018 +00000-0 +49460-4 0  9993
2 41602 097.4808 066.8536 0008196 302.4707 057.5736 15.20693454029588
1 41602U 16040D   17003.81076646  .00001260  00000-0  60500-4 0  9997
2 41602  97.4807  67.7679 0008153 298.7243  61.3173 15.20697042 29721
1 41602U 16040D   17003.94236900 +.00001194 +00000-0 +57503-4 0  9997
2 41602 097.4807 067.8985 0008151 298.1773 061.8639 15.20697018029749
1 41602U 16040D   17004.92938750 +.00001080 +00000-0 +52285-4 0  9994
2 41602 097.4806 068.8782 0008118 294.0433 065.9953 15.20698800029895
1 41602U 16040D   17005.12679097  .00001058  00000-0  51311-4 0  9997
2 41602  97.4806  69.0741 0008114 293.2110  66.8271 15.20699244 29922
1 41602U 16040D   17005.91640356 +.00001228 +00000-0 +59034-4 0  9999
2 41602 097.4805 069.8578 0008084 289.9697 070.0667 15.20702437030045
1 41602U 16040D   17006.17960764  .00001197  00000-0  57631-4 0  9992
2 41602  97.4804  70.1190 0008076 288.8687  71.1673 15.20703055 30087
1 41602U 16040D   17006.70601537 +.00001248 +00000-0 +59933-4 0  9995
2 41602 097.4804 070.6415 0008052 286.6629 073.3722 15.20704828030165
1 41602U 16040D   17007.49562630  .00001218  00000-0  58568-4 0  9992
2 41602  97.4803  71.4252 0008030 283.3817  76.6523 15.20706791 30280
1 41602U 16040D   17008.02203303 +.00001243 +00000-0 +59708-4 0  9996
2 41602 097.4802 071.9476 0008021 281.2224 078.8110 15.20708273030363
1 41602U 16040D   17008.81164215  .00001152  00000-0  55544-4 0  9994
2 41602  97.4800  72.7312 0008010 277.9071  82.1255 15.20709918 30487
1 41602U 16040D   17008.94324356 +.00001157 +00000-0 +55767-4 0  9994
2 41602 097.4800 072.8618 0008011 277.3669 082.6656 15.20710289030501
1 41602U 16040D   17009.93025338 +.00001153 +00000-0 +55597-4 0  9999
2 41602 097.4798 073.8414 0008012 273.1724 086.8595 15.20712851030650
1 41602U 16040D   17010.12765512  .00001132  00000-0  54618-4 0  9997
2 41602  97.4798  74.0373 0008015 272.3472  87.6845 15.20713316 30688
1 41602U 16040D   17010.91726180 +.00000984 +00000-0 +47910-4 0  9993
2 41602 097.4797 074.8209 0008015 268.9952 091.0364 15.20714591030802
1 41602U 16040D   17011.18046380  .00000960  00000-0  46812-4 0  9994
2 41602  97.4796  75.0821 0008019 267.8839  92.1478 15.20715168 30843
1 41602U 16040D   17011.90426911 +.00000858 +00000-0 +42156-4 0  9999
2 41602 097.4795 075.8004 0008018 264.8205 095.2116 15.20716331030954
1 41602U 16040D   17012.43067240  .00000940  00000-0  45881-4 0  9994
2 41602  97.4794  76.3228 0008019 262.6036  97.4288 15.20717968 31037
1 41602U 16040D   17012.89127529 +.00000780 +00000-0 +38612-4 0  9997
2 41602 097.4793 076.7799 0008025 260.6535 099.3793 15.20718054031109
1 41602U 16040D   17013.54927862  .00000864  00000-0  42447-4 0  9992
2 41602  97.4792  77.4329 0008040 257.9008 102.1326 15.20719910 31204
1 41602U 16040D   17014.00988069 +.00000841 +00000-0 +41380-4 0  9990
2 41602 097.4791 077.8900 0008057 256.0340 104.0000 15.20720716031272
1 41602U 16040D   17014.79948378  .00000856  00000-0  42055-4 0  9991
2 41602  97.4789  78.6736 0008086 252.7660 107.2690 15.20722374 31390
1 41602U 16040D   17014.93108432 +.00000741 +00000-0 +36853-4 0  9998
2 41602 097.4789 078.8042 0008096 252.2215 107.8137 15.20721976031416
1 41602U 16040D   17015.85228714  .00000730  00000-0  36355-4 0  9991
2 41602  97.4788  79.7183 0008128 248.3818 111.6552 15.20723645 31556
1 41602U 16040D   17015.91808728 +.00000690 +00000-0 +34538-4 0  9993
2 41602 097.4788 079.7836 0008132 248.1104 111.9267 15.20723563031568
1 41602U 16040D   17016.90508944 +.00000646 +00000-0 +32542-4 0  9994
2 41602 097.4786 080.7630 0008169 244.0036 116.0359 15.20725043031719
1 41602U 16040D   17017.16828988  .00000643  00000-0  32374-4 0  9996
2 41602  97.4786  81.0242 0008182 242.9298 117.1103 15.20725457 31756
1 41602U 16040D   17017.89209050 +.00000731 +00000-0 +36401-4 0  9992
2 41602 097.4785 081.7424 0008210 239.9622 120.0799 15.20727116031863
1 41602U 16040D   17018.22109064  .00000740  00000-0  36815-4 0  9993
2 41602  97.4784  82.0688 0008229 238.6243 121.4188 15.20727684 31916
1 41602U 16040D   17018.87909003 +.00000968 +00000-0 +47163-4 0  9995
2 41602 097.4783 082.7218 0008262 236.0211 124.0240 15.20730129032013
1 41602U 16040D   17019.47128884  .00001129  00000-0  54450-4 0  9999
2 41602  97.4783  83.3094 0008302 233.6313 126.4157 15.20732214 32103
1 41602U 16040D   17019.93188810 +.00000932 +00000-0 +45516-4 0  9999
2 41602 097.4782 083.7664 0008337 231.8167 128.2317 15.20731968032174
1 41602U 16040D   17020.85308487  .00001071  00000-0  51845-4 0  9993
2 41602  97.4781  84.6805 0008393 228.1299 131.9221 15.20734753 32313
1 41602U 16040D   17020.91888469 +.00000955 +00000-0 +46567-4 0  9998
2 41602 097.4781 084.7458 0008400 227.8582 132.1941 15.20734251032324
1 41602U 16040D   17021.90587984 +.00000976 +00000-0 +47486-4 0  9990
2 41602 097.4780 085.7251 0008466 223.9295 136.1268 15.20736587032471
1 41602U 16040D   17022.16907830  .00000981  00000-0  47732-4 0  9995
2 41602  97.4780  85.9863 0008485 222.9229 137.1345 15.20737208 32512
1 41602U 16040D   17022.89287304 +.00001084 +00000-0 +52409-4 0  9994
2 41602 097.4779 086.7044 0008534 220.1093 139.9514 15.20739567032624
1 41602U 16040D   17023.48506825  .00001113  00000-0  53724-4 0  9996
2 41602  97.4778  87.2920 0008576 217.7960 142.2674 15.20741168 32717
1 41602U 16040D   17023.94566406 +.00001113 +00000-0 +53713-4 0  9996
2 41602 097.4777 087.7490 0008614 216.0586 144.0070 15.20742353032786
1 41602U 16040D   17024.53785791  .00001165  00000-0  56090-4 0  9990
2 41602  97.4776  88.3366 0008667 213.7876 146.2808 15.20744302 32877
1 41602U 16040D   17024.86685474 +.00001016 +00000-0 +49298-4 0  9990
2 41602 097.4775 088.6630 0008695 212.5476 147.5224 15.20744253032924
1 41602U 16040D   17025.85384308  .00001162  00000-0  55925-4 0  9998
2 41602  97.4773  89.6423 0008778 208.7938 151.2814 15.20747663 33077
1 41602U 16040D   17025.91964230 +.00001009 +00000-0 +48972-4 0  9997
2 41602 097.4773 089.7076 0008791 208.5248 151.5508 15.20747038033089
1 41602U 16040D   17026.84082980 +.00001136 +00000-0 +54746-4 0  9990
2 41602 097.4771 090.6215 0008869 205.0130 155.0677 15.20750211033220
1 41602U 16040D   17027.16982437  .00001276  00000-0  61122-4 0  9993
2 41602  97.4770  90.9480 0008897 203.7986 156.2839 15.20752028 33277
1 41602U 16040D   17027.89361263 +.00001567 +00000-0 +74316-4 0  9993
2 41602 097.4768 091.6660 0008957 201.0816 159.0051 15.20755554033388
1 41602U 16040D   17028.55160144  .00001531  00000-0  72670-4 0  9994
2 41602  97.4767  92.3188 0009014 198.6552 161.4354 15.20757135 33484
1 41602U 16040D   17028.94639475 +.00001285 +00000-0 +61503-4 0  9994
2 41602 097.4766 092.7105 0009053 197.2099 162.8831 15.20756819033540
1 41602U 16040D   17029.80177825  .00001478  00000-0  70234-4 0  9991
2 41602  97.4765  93.5591 0009132 194.1313 165.9668 15.20760228 33675
1 41602U 16040D   17029.86757712 +.00001260 +00000-0 +60340-4 0  9992
2 41602 097.4764 093.6244 0009147 193.9009 166.1975 15.20759181033686
1 41602U 16040D   17030.85455655  .00001353  00000-0  64553-4 0  9997
2 41602  97.4763  94.6036 0009239 190.2978 169.8069 15.20762491 33831
1 41602U 16040D   17030.92035508 +.00001138 +00000-0 +54817-4 0  9999
2 41602 097.4763 094.6689 0009253 190.0582 170.0469 15.20761567033842
1 41602U 16040D   17031.90733220 +.00001276 +00000-0 +61085-4 0  9992
2 41602 097.4761 095.6480 0009350 186.5715 173.5399 15.20765252033997
1 41602U 16040D   17032.17052576  .00001280  00000-0  61248-4 0  9996
2 41602  97.4761  95.9091 0009378 185.6465 174.4666 15.20766041 34030
1 41602U 16040D   17033.42069292  .00001575  00000-0  74602-4 0  9993
2 41602  97.4759  97.1494 0009493 181.1990 178.9224 15.20771430 34228
1 41602U 16040D   17033.94707876 +.00001310 +00000-0 +62586-4 0  9992
2 41602 097.4758 097.6716 0009546 179.4020 180.7229 15.20771440034308
1 41602U 16040D   17034.47346353  .00001431  00000-0  68061-4 0  9998
2 41602  97.4758  98.1938 0009594 177.5903 182.5380 15.20773681 34387
1 41602U 16040D   17035.78942358  .00001282  00000-0  61329-4 0  9994
2 41602  97.4755  99.4992 0009725 173.1200 187.0171 15.20776909 34582
1 41602U 16040D   17035.92101970 +.00001116 +00000-0 +53777-4 0  9991
2 41602 097.4755 099.6297 0009739 172.6768 187.4611 15.20776312034604
1 41602U 16040D   17036.84218934  .00001177  00000-0  56532-4 0  9991
2 41602  97.4754 100.5435 0009829 169.5135 190.6307 15.20779475 34748
1 41602U 16040D   17036.90798714 +.00001185 +00000-0 +56912-4 0  9998
2 41602 097.4754 100.6088 0009835 169.2901 190.8545 15.20779713034750
1 41602U 16040D   17037.89495307 +.00001079 +00000-0 +52092-4 0  9996
2 41602 097.4752 101.5878 0009934 165.9479 194.2034 15.20781990034906
1 41602U 16040D   17038.22394140  .00001066  00000-0  51502-4 0  9998
2 41602  97.4751 101.9142 0009960 164.8600 195.2935 15.20782774 34953
1 41602U 16040D   17038.88191770 +.00000949 +00000-0 +46185-4 0  9994
2 41602 097.4750 102.5669 0010029 162.6942 197.4637 15.20783902035055
1 41602U 16040D   17039.80308348  .00000950  00000-0  46222-4 0  9992
2 41602  97.4748 103.4806 0010109 159.6985 200.4654 15.20786145 35198
1 41602U 16040D   17039.93467830 +.00000906 +00000-0 +44257-4 0  9995
2 41602 097.4747 103.6111 0010122 159.2839 200.8809 15.20786285035211
1 41602U 16040D   17040.85584300  .00000806  00000-0  39694-4 0  9998
2 41602  97.4746 104.5248 0010209 156.2838 203.8869 15.20787847 35352
1 41602U 16040D   17040.92164040 +.00000809 +00000-0 +39854-4 0  9992
2 41602 097.4745 104.5901 0010217 156.0681 204.1031 15.20787997035362
1 41602U 16040D   17041.90860101 +.00000888 +00000-0 +43425-4 0  9998
2 41602 097.4743 105.5691 0010310 152.8252 207.3524 15.20790614035518
1 41602U 16040D   17042.17179027  .00000887  00000-0  43391-4 0  9999
2 41602  97.4743 105.8301 0010331 151.9838 208.1955 15.20791178 35559
1 41602U 16040D   17042.82976331 +.00000853 +00000-0 +41822-4 0  9994
2 41602 097.4742 106.4827 0010388 149.8458 210.3377 15.20792230035658
1 41602U 16040D   17043.22454703  .00000792  00000-0  39077-4 0  9994
2 41602  97.4741 106.8743 0010418 148.5935 211.5925 15.20792584 35719
1 41602U 16040D   17043.94831619 +.00000816 +00000-0 +40168-4 0  9998
2 41602 097.4739 107.5922 0010475 146.2966 213.8937 15.20794116035828
1 41602U 16040D   17044.47469320  .00000897  00000-0  43829-4 0  9999
2 41602  97.4738 108.1142 0010516 144.6591 215.5343 15.20795616 35905
1 41602U 16040D   17044.86947609 +.00000846 +00000-0 +41524-4 0  9997
2 41602 097.4737 108.5058 0010542 143.4442 216.7515 15.20796010035964
1 41602U 16040D   17045.85643193  .00000926  00000-0  45115-4 0  9997
2 41602  97.4736 109.4847 0010614 140.3344 219.8670 15.20798345 36113
1 41602U 16040D   17045.92222905 +.00000765 +00000-0 +37847-4 0  9993
2 41602 097.4735 109.5499 0010623 140.1484 220.0533 15.20797586036128
1 41602U 16040D   17046.90918372 +.00000786 +00000-0 +38791-4 0  9994
2 41602 097.4734 110.5288 0010705 137.0250 223.1823 15.20799543036279
1 41602U 16040D   17047.17237146  .00000785  00000-0  38726-4 0  9994
2 41602  97.4733 110.7898 0010723 136.2059 224.0028 15.20800016 36315
1 41602U 16040D   17047.83034017  .00000715  00000-0  35562-4 0  9997
2 41602  97.4730 111.4416 0011037 133.3037 226.9032 15.20800226 36419
1 41602U 16040D   17049.14627476  .00001284  00000-0  61332-4 0  9996
2 41602  97.4731 112.7474 0010828 130.0277 230.1910 15.20806726 36610
1 41602U 16040D   17049.93583435 +.00001123 +00000-0 +54045-4 0  9994
2 41602 097.4729 113.5304 0010877 127.6466 232.5758 15.20807687036730
1 41602U 16040D   17050.46220613  .00001374  00000-0  65405-4 0  9990
2 41602  97.4729 114.0525 0010907 126.0114 234.2133 15.20810463 36819
1 41602U 16040D   17050.85698494 +.00001342 +00000-0 +63931-4 0  9996
2 41602 097.4728 114.4440 0010926 124.8021 235.4244 15.20811346036875
1 41602U 16040D   17051.84393031  .00001371  00000-0  65243-4 0  9995
2 41602  97.4727 115.4227 0010983 121.7814 238.4493 15.20814272 37025
1 41602U 16040D   17051.90972654 +.00001349 +00000-0 +64249-4 0  9996
2 41602 097.4726 115.4880 0010989 121.5951 238.6358 15.20814325037037
1 41602U 16040D   17052.89667021 +.00001238 +00000-0 +59221-4 0  9995
2 41602 097.4724 116.4667 0011040 118.5700 241.6648 15.20816462037182
1 41602U 16040D   17053.22565091  .00001237  00000-0  59203-4 0  9996
2 41602  97.4724 116.7930 0011048 117.5665 242.6694 15.20817437 37236
1 41602U 16040D   17053.88361113 +.00001418 +00000-0 +67381-4 0  9994
2 41602 097.4723 117.4455 0011070 115.5376 244.7005 15.20820505037337
1 41602U 16040D   17054.47577424  .00001674  00000-0  78942-4 0  9993
2 41602  97.4722 118.0327 0011090 113.7589 246.4810 15.20823873 37423
1 41602U 16040D   17054.93634525 +.00001570 +00000-0 +74229-4 0  9999
2 41602 097.4720 118.4894 0011098 112.3924 247.8488 15.20824887037499
1 41602U 16040D   17055.52850614  .00001951  00000-0  91462-4 0  9995
2 41602  97.4719 119.0767 0011115 110.6054 249.6375 15.20829201 37588
1 41602U 16040D   17055.92328040 +.00001944 +00000-0 +91150-4 0  9998
2 41602 097.4718 119.4681 0011130 109.4207 250.8233 15.20830442037642
1 41602U 16040D   17056.84441888  .00001797  00000-0  84479-4 0  9998
2 41602  97.4716 120.3815 0011164 106.6628 253.5834 15.20832742 37780
1 41602U 16040D   17056.91021499 +.00001575 +00000-0 +74441-4 0  9990
2 41602 097.4716 120.4468 0011166 106.4847 253.7616 15.20831550037795
1 41602U 16040D   17057.83135148 +.00001479 +00000-0 +70104-4 0  9994
2 41602 097.4714 121.3601 0011190 103.7023 256.5459 15.20834059037934
1 41602U 16040D   17058.16032832  .00001467  00000-0  69551-4 0  9998
2 41602  97.4713 121.6863 0011194 102.7212 257.5275 15.20835099 37986
1 41602U 16040D   17059.47623296  .00001862  00000-0  87398-4 0  9991
2 41602  97.4711 122.9912 0011205  98.7056 261.5449 15.20841661 38189
1 41602U 16040D   17059.93679932 +.00001336 +00000-0 +63633-4 0  9992
2 41602 097.4710 123.4479 0011205 097.3923 262.8586 15.20840250038257
1 41602U 16040D   17060.79213250  .00001902  00000-0  89228-4 0  9992
2 41602  97.4709 124.2960 0011209  94.8037 265.4479 15.20846915 38389
1 41602U 16040D   17060.92372291 +.00001938 +00000-0 +90823-4 0  9990
2 41602 097.4708 124.4265 0011208 094.4076 265.8440 15.20847261038406
1 41602U 16040D   17061.84485055  .00002261  00000-0  10544-3 0  9996
2 41602  97.4702 125.3398 0011254  91.8551 268.3973 15.20850729 38544
1 41602U 16040D   17061.91064521 +.00002443 +00000-0 +11369-3 0  9993
2 41602 097.4702 125.4050 0011252 091.6669 268.5856 15.20851527038556
1 41602U 16040D   17062.89756341 +.00002239 +00000-0 +10444-3 0  9995
2 41602 097.4701 126.3836 0011221 088.7043 271.5478 15.20855665038704
1 41602U 16040D   17063.16074100  .00002169  00000-0  10128-3 0  9993
2 41602  97.4700 126.6445 0011212  87.9096 272.3423 15.20856893 38748
1 41602U 16040D   17063.88447831 +.00001858 +00000-0 +87195-4 0  9990
2 41602 097.4701 127.3622 0011207 085.7320 274.5196 15.20859650038851
1 41602U 16040D   17064.47662603  .00001736  00000-0  81659-4 0  9996
2 41602  97.4701 127.9493 0011213  83.9959 276.2554 15.20862072 38947
1 41602U 16040D   17064.93718539 +.00001671 +00000-0 +78752-4 0  9995
2 41602 097.4702 128.4059 0011176 082.4298 277.8206 15.20862062039019
1 41602U 16040D   17065.85830147  .00001547  00000-0  73129-4 0  9992
2 41602  97.4700 129.3191 0011157  79.6873 280.5619 15.20865377 39156
1 41602U 16040D   17065.92409522 +.00001792 +00000-0 +84206-4 0  9999
2 41602 097.4700 129.3844 0011158 079.4835 280.7657 15.20866977039160
1 41602U 16040D   17066.91100296 +.00001445 +00000-0 +68495-4 0  9992
2 41602 097.4698 130.3628 0011140 076.5626 283.6850 15.20869199039318
1 41602U 16040D   17067.17417798  .00001407  00000-0  66754-4 0  9993
2 41602  97.4697 130.6237 0011129  75.7758 284.4712 15.20870046 39353
1 41602U 16040D   17067.89790852 +.00001320 +00000-0 +62844-4 0  9997
2 41602 097.4696 131.3412 0011110 073.5946 286.6510 15.20872239039468
1 41602U 16040D   17068.49005056  .00001327  00000-0  63159-4 0  9996
2 41602  97.4695 131.9283 0011086  71.8209 288.4233 15.20874537 39559
1 41602U 16040D   17068.88481218 +.00001228 +00000-0 +58681-4 0  9991
2 41602 097.4694 132.3197 0011071 070.6282 289.6149 15.20875148039614
1 41602U 16040D   17069.80591993  .00001257  00000-0  59972-4 0  9992
2 41602  97.4692 133.2329 0011029  67.8599 292.3806 15.20878567 39755
1 41602U 16040D   17069.93750703 +.00001200 +00000-0 +57420-4 0  9996
2 41602 097.4692 133.3633 0011023 067.4738 292.7663 15.20878568039777
1 41602U 16040D   17070.85861388  .00001089  00000-0  52386-4 0  9992
2 41602  97.4690 134.2765 0010978  64.7069 295.5302 15.20880706 39910
1 41602U 16040D   17070.92440726 +.00000986 +00000-0 +47726-4 0  9996
2 41602 097.4689 134.3417 0010974 064.5227 295.7143 15.20880326039927
1 41602U 16040D   17071.91130547 +.00001055 +00000-0 +50844-4 0  9996
2 41602 097.4688 135.3201 0010933 061.5497 298.6839 15.20883558040071
1 41602U 16040D   17072.17447810  .00001036  00000-0  50004-4 0  9996
2 41602  97.4687 135.5810 0010917  60.7497 299.4828 15.20884190 40116
1 41602U 16040D   17072.89820234 +.00001015 +00000-0 +49040-4 0  9995
2 41602 097.4686 136.2984 0010881 058.5478 301.6820 15.20885930040222
1 41602U 16040D   17073.95089093 +.00000916 +00000-0 +44557-4 0  9990
2 41602 097.4683 137.3420 0010814 055.2988 304.9265 15.20887898040383
1 41602U 16040D   17074.93778526 +.00000828 +00000-0 +40585-4 0  9994
2 41602 097.4681 138.3202 0010746 052.2529 307.9678 15.20889605040538
1 41602U 16040D   17075.92467798 +.00000908 +00000-0 +44207-4 0  9994
2 41602 097.4680 139.2985 0010675 049.2212 310.9948 15.20892231040680
1 41602U 16040D   17076.91156967 +.00000912 +00000-0 +44350-4 0  9991
2 41602 097.4678 140.2768 0010612 046.1739 314.0372 15.20894293040832
1 41602U 16040D   17077.83266757 +.00000841 +00000-0 +41164-4 0  9993
2 41602 097.4677 141.1898 0010542 043.2993 316.9069 15.20895642040975
1 41602U 16040D   17078.88534976 +.00000813 +00000-0 +39901-4 0  9995
2 41602 097.4675 142.2332 0010457 039.9407 320.2596 15.20897334041137
1 41602U 16040D   17079.93803062 +.00000899 +00000-0 +43767-4 0  9996
2 41602 097.4674 143.2767 0010369 036.5737 323.6204 15.20899664041298
1 41602U 16040D   17080.85912437 +.00001050 +00000-0 +50614-4 0  9995
2 41602 097.4672 144.1896 0010291 033.6229 326.5657 15.20902438041431
1 41602U 16040D   17081.91180045 +.00001426 +00000-0 +67601-4 0  9996
2 41602 097.4670 145.2330 0010207 030.3047 329.8776 15.20907080041596
1 41602U 16040D   17082.89868310 +.00001471 +00000-0 +69629-4 0  9994
2 41602 097.4669 146.2111 0010118 027.1126 333.0636 15.20909674041745
1 41602U 16040D   17083.95135570 +.00001430 +00000-0 +67772-4 0  9999
2 41602 097.4667 147.2544 0010019 023.6281 336.5412 15.20912204041908
1 41602U 16040D   17084.93823484 +.00001486 +00000-0 +70295-4 0  9991
2 41602 097.4665 148.2326 0009923 020.3315 339.8313 15.20915067042052
1 41602U 16040D   17085.85932029 +.00001506 +00000-0 +71161-4 0  9995
2 41602 097.4663 149.1455 0009833 017.2555 342.9012 15.20917711042198
1 41602U 16040D   17086.91198529 +.00001912 +00000-0 +89526-4 0  9997
2 41602 097.4661 150.1888 0009735 013.7495 346.4004 15.20923522042358
1 41602U 16040D   17087.89885654 +.00002038 +00000-0 +95178-4 0  9997
2 41602 097.4660 151.1669 0009637 010.4151 349.7282 15.20927632042506
1 41602U 16040D   17088.88572701 +.00002330 +00000-0 +10837-3 0  9996
2 41602 097.4653 152.1449 0009511 007.1103 353.0266 15.20930930042657
